<?xml version="1.0" encoding="utf-8"?>
<!-- Generator: Adobe Illustrator 17.0.0, SVG Export Plug-In . SVG Version: 6.00 Build 0)  -->
<!DOCTYPE svg PUBLIC "-//W3C//DTD SVG 1.1//EN" "http://www.w3.org/Graphics/SVG/1.1/DTD/svg11.dtd">
<svg version="1.1" id="Laag_1" xmlns="http://www.w3.org/2000/svg" xmlns:xlink="http://www.w3.org/1999/xlink" x="0px" y="0px"
	 width="400px" height="70px" viewBox="0 0 400 70" enable-background="new 0 0 400 70" xml:space="preserve">
<g>
	<path fill="#799900" d="M44.789,45.95c0,3.261-2.644,5.907-5.904,5.907H5.907C2.646,51.857,0,49.211,0,45.95V12.972
		c0-3.261,2.646-5.906,5.907-5.906h32.978c3.26,0,5.904,2.644,5.904,5.906V45.95z"/>
	<path fill="#FFFFFF" d="M18.591,47.079c-0.125,0.07-0.248,0.142-0.371,0.212c-1.118-0.111-2.31,0.047-3.449,0.009
		c2.15-5.301,4.528-10.541,6.872-15.787c-2.374-0.2-5.681-0.228-8.575-0.334c-0.89-0.031-2.259-0.309-2.811-0.028
		c-1.526,0.78-1.743,3.234-3.188,4.465c-0.842,0.274-1.506-0.097-2.351,0.2c-0.048-0.083-0.095-0.165-0.143-0.246
		c0.753-1.955,0.872-4.082,1.629-6.034c-0.767-2.017-1.004-3.89-1.746-5.9c0.848-0.047,1.695-0.098,2.491,0.045
		c1.094,1.367,2.136,2.925,3.193,4.412c3.748,0.047,7.596-0.285,11.405-0.471c-2.201-5.187-4.786-10.479-7.042-15.681
		c0.081-0.048,0.165-0.095,0.248-0.143c1.079,0.248,2.29,0.02,3.396,0.186c3.93,4.905,7.792,10.062,11.671,15.157
		c3.218,0.577,6.946-0.723,9.78,1.285c0.19,0.329,0.379,0.658,0.569,0.988c-1.127,4.172-7.552,1.855-10.391,2.52
		C26.111,36.997,22.164,41.986,18.591,47.079"/>
	<g>
		<g>
			<path fill="#FFFFFF" d="M68.206,7.066c2.42,0,4.234,0.395,5.446,1.184c1.21,0.79,1.815,1.995,1.815,3.615
				c0,1.58-0.6,2.759-1.799,3.538c-1.201,0.779-3.02,1.168-5.461,1.168H59.9v7.999h7.167c2.44,0,4.261,0.39,5.461,1.169
				c1.199,0.78,1.799,1.969,1.799,3.569s-0.6,2.784-1.799,3.553c-1.201,0.768-3.022,1.155-5.461,1.155H59.9v11.166
				c0,2.442-0.421,4.256-1.263,5.444c-0.84,1.191-2.122,1.785-3.845,1.785s-3.004-0.594-3.846-1.785
				c-0.84-1.188-1.261-3.003-1.261-5.444V14.234c0-2.727,0.524-4.604,1.57-5.63c1.046-1.025,2.87-1.538,5.475-1.538H68.206z"/>
			<path fill="#FFFFFF" d="M77.729,11.035c0-2.461,0.41-4.287,1.23-5.476s2.071-1.784,3.753-1.784c1.64,0,2.866,0.6,3.676,1.8
				c0.811,1.2,1.216,3.02,1.216,5.461V45.06c0,2.462-0.401,4.283-1.201,5.461c-0.8,1.179-2.03,1.768-3.692,1.768
				c-1.682,0-2.933-0.594-3.753-1.784s-1.23-3.004-1.23-5.446L77.729,11.035L77.729,11.035z"/>
			<path fill="#FFFFFF" d="M92.484,38.323V25.094c0-2.441,0.41-4.25,1.23-5.43c0.82-1.179,2.072-1.77,3.754-1.77
				c1.66,0,2.897,0.59,3.706,1.77c0.811,1.179,1.216,2.989,1.216,5.43v11.199c0,2.644,0.399,4.517,1.199,5.613
				c0.8,1.098,2.103,1.646,3.907,1.646c1.805,0,3.107-0.549,3.907-1.646c0.8-1.096,1.201-2.969,1.201-5.613V25.094
				c0-2.441,0.405-4.25,1.214-5.43c0.811-1.179,2.067-1.77,3.77-1.77c1.661,0,2.891,0.585,3.69,1.754c0.8,1.169,1.2,2.984,1.2,5.445
				v13.229c0,4.718-1.282,8.322-3.846,10.814c-2.563,2.491-6.275,3.737-11.137,3.737c-4.86,0-8.578-1.246-11.15-3.737
				C93.772,46.645,92.484,43.041,92.484,38.323z"/>
			<path fill="#FFFFFF" d="M148.72,47.705c-1.088,1.559-2.379,2.722-3.876,3.492c-1.498,0.769-3.21,1.154-5.139,1.154
				c-4.019,0-7.42-1.651-10.198-4.953c-2.78-3.302-4.169-7.404-4.169-12.306c0-4.942,1.498-9.106,4.492-12.49
				c2.995-3.384,6.645-5.076,10.953-5.076c1.681,0,3.173,0.288,4.476,0.861c1.302,0.575,2.456,1.466,3.461,2.676
				c0.533-0.985,1.194-1.758,1.985-2.322c0.789-0.564,1.593-0.847,2.415-0.847c1.701,0,2.958,0.59,3.768,1.77
				c0.809,1.179,1.215,2.989,1.215,5.43V45.06c0,3.672-0.179,6.537-0.538,8.598s-0.959,3.77-1.801,5.123
				c-1.456,2.44-3.459,4.291-6.013,5.553c-2.554,1.26-5.585,1.891-9.091,1.891c-4.287,0-7.783-0.688-10.491-2.061
				c-2.707-1.373-4.06-3.107-4.06-5.199c0-1.25,0.404-2.287,1.215-3.107c0.811-0.82,1.83-1.23,3.06-1.23
				c0.595,0,2.025,0.44,4.292,1.322c2.267,0.883,4.384,1.324,6.353,1.324c2.46,0,4.368-0.728,5.722-2.184
				c1.353-1.456,2.03-3.517,2.03-6.183c0-0.123-0.009-0.318-0.03-0.585C148.729,48.054,148.72,47.849,148.72,47.705z
				 M135.614,35.092c0,2.482,0.605,4.492,1.815,6.03c1.21,1.537,2.769,2.307,4.676,2.307c1.908,0,3.477-0.775,4.707-2.323
				c1.232-1.55,1.846-3.555,1.846-6.015c0-2.399-0.614-4.353-1.846-5.861c-1.23-1.508-2.798-2.261-4.707-2.261
				c-1.907,0-3.466,0.754-4.676,2.261C136.219,30.739,135.614,32.693,135.614,35.092z"/>
			<path fill="#799900" d="M163.232,11.035c0-2.461,0.41-4.287,1.23-5.476c0.82-1.189,2.07-1.784,3.753-1.784
				c1.64,0,2.866,0.6,3.676,1.8c0.811,1.2,1.216,3.02,1.216,5.461V45.06c0,2.462-0.401,4.283-1.2,5.461
				c-0.8,1.179-2.03,1.768-3.692,1.768c-1.682,0-2.933-0.594-3.753-1.784s-1.23-3.004-1.23-5.446V11.035z"/>
			<path fill="#799900" d="M199.79,48.843c-1.006,1.232-2.22,2.17-3.645,2.816c-1.427,0.645-2.979,0.97-4.662,0.97
				c-4.245,0-7.819-1.671-10.72-5.016c-2.903-3.343-4.354-7.516-4.354-12.521c0-4.942,1.498-9.106,4.492-12.49
				c2.995-3.384,6.645-5.076,10.952-5.076c1.681,0,3.173,0.288,4.476,0.861c1.302,0.575,2.456,1.466,3.461,2.676
				c0.574-1.046,1.261-1.835,2.061-2.368c0.801-0.533,1.692-0.801,2.678-0.801c1.659,0,2.89,0.585,3.689,1.754
				c0.801,1.169,1.201,2.984,1.201,5.445V45.06c0,2.441-0.406,4.256-1.213,5.446c-0.811,1.19-2.036,1.784-3.676,1.784
				c-1.11,0-2.042-0.278-2.801-0.83C200.969,50.905,200.324,50.035,199.79,48.843z M186.685,34.969c0,2.44,0.594,4.404,1.784,5.892
				c1.19,1.487,2.739,2.23,4.646,2.23c1.866,0,3.394-0.753,4.584-2.261c1.19-1.508,1.785-3.461,1.785-5.861
				c0-2.338-0.6-4.245-1.801-5.722c-1.199-1.477-2.722-2.215-4.568-2.215c-1.887,0-3.43,0.733-4.63,2.2
				C187.285,30.698,186.685,32.611,186.685,34.969z"/>
			<path fill="#799900" d="M235.87,49.09c-1.026,1.107-2.22,1.949-3.586,2.522c-1.363,0.574-2.856,0.861-4.474,0.861
				c-4.166,0-7.758-1.717-10.783-5.151c-3.028-3.436-4.54-7.614-4.54-12.538c0-4.921,1.494-9.069,4.478-12.443
				c2.984-3.373,6.598-5.061,10.845-5.061c1.537,0,2.943,0.231,4.213,0.692c1.272,0.461,2.473,1.175,3.601,2.138v-9.075
				c0-2.461,0.405-4.287,1.213-5.476c0.811-1.189,2.067-1.784,3.77-1.784c1.64,0,2.866,0.6,3.676,1.8
				c0.811,1.2,1.216,3.02,1.216,5.461V45.06c0,2.462-0.402,4.283-1.201,5.461c-0.801,1.179-2.03,1.768-3.692,1.768
				c-0.985,0-1.877-0.271-2.675-0.814C237.129,50.931,236.443,50.136,235.87,49.09z M222.702,34.908c0,2.46,0.614,4.46,1.846,5.999
				c1.232,1.537,2.8,2.307,4.705,2.307c1.908,0,3.467-0.764,4.677-2.293c1.21-1.526,1.815-3.531,1.815-6.013
				c0-2.523-0.599-4.559-1.799-6.107c-1.2-1.549-2.763-2.323-4.693-2.323c-1.927,0-3.502,0.78-4.721,2.338
				C223.313,30.375,222.702,32.406,222.702,34.908z"/>
			<path fill="#799900" d="M258.782,37.861c0.224,1.866,0.995,3.322,2.307,4.368c1.313,1.045,3.046,1.568,5.198,1.568
				c1.868,0,3.945-0.538,6.23-1.615c2.289-1.076,3.698-1.615,4.231-1.615c1.169,0,2.124,0.359,2.859,1.077
				c0.739,0.719,1.107,1.642,1.107,2.769c0,2.133-1.484,4.055-4.459,5.767c-2.975,1.713-6.47,2.569-10.489,2.569
				c-4.905,0-8.996-1.671-12.276-5.014s-4.924-7.537-4.924-12.582c0-5.066,1.596-9.291,4.786-12.675
				c3.187-3.384,7.162-5.076,11.921-5.076c4.593,0,8.438,1.589,11.537,4.768c3.096,3.179,4.643,7.066,4.643,11.66
				c0,1.498-0.337,2.543-1.013,3.139c-0.677,0.595-1.98,0.892-3.907,0.892H258.782z M258.66,31.37h13.102
				c-0.121-1.681-0.798-3.087-2.03-4.215c-1.229-1.127-2.697-1.692-4.4-1.692c-1.681,0-3.128,0.533-4.337,1.6
				C259.786,28.13,259.006,29.565,258.66,31.37z"/>
			<path fill="#799900" d="M284.457,45.06V25.094c0-2.441,0.405-4.25,1.216-5.43c0.808-1.179,2.055-1.77,3.736-1.77
				c1.007,0,1.899,0.262,2.678,0.785c0.78,0.523,1.466,1.318,2.061,2.384c1.066-1.169,2.295-2.02,3.692-2.553
				c1.394-0.533,3.084-0.8,5.076-0.8c3.916,0,6.91,1.118,8.98,3.353c2.074,2.236,3.109,5.486,3.109,9.752V45.06
				c0,2.441-0.412,4.256-1.232,5.446s-2.07,1.784-3.751,1.784c-1.684,0-2.934-0.594-3.754-1.784s-1.232-3.004-1.232-5.446V33.831
				c0-2.769-0.415-4.743-1.244-5.922c-0.832-1.179-2.201-1.769-4.107-1.769c-1.805,0-3.14,0.61-4.001,1.83
				c-0.861,1.221-1.291,3.133-1.291,5.737V45.06c0,2.441-0.412,4.256-1.232,5.446s-2.07,1.784-3.754,1.784
				c-1.681,0-2.928-0.594-3.736-1.784C284.862,49.316,284.457,47.501,284.457,45.06z"/>
			<path fill="#FFFFFF" d="M318.641,46.567c0-1.578,0.564-2.928,1.693-4.044c1.126-1.119,2.479-1.678,4.06-1.678
				c1.559,0,2.891,0.558,3.997,1.678c1.11,1.116,1.662,2.466,1.662,4.044c0,1.6-0.549,2.953-1.646,4.06
				c-1.098,1.108-2.435,1.662-4.013,1.662c-1.621,0-2.984-0.554-4.091-1.662C319.196,49.52,318.641,48.167,318.641,46.567z"/>
			<path fill="#FFFFFF" d="M354.416,49.09c-1.026,1.107-2.22,1.949-3.586,2.522c-1.363,0.574-2.856,0.861-4.474,0.861
				c-4.166,0-7.758-1.717-10.783-5.151c-3.028-3.436-4.54-7.614-4.54-12.538c0-4.921,1.494-9.069,4.478-12.443
				c2.984-3.373,6.598-5.061,10.845-5.061c1.537,0,2.943,0.231,4.213,0.692c1.272,0.461,2.473,1.175,3.601,2.138v-9.075
				c0-2.461,0.405-4.287,1.213-5.476c0.811-1.189,2.067-1.784,3.77-1.784c1.64,0,2.866,0.6,3.676,1.8
				c0.811,1.2,1.216,3.02,1.216,5.461V45.06c0,2.462-0.402,4.283-1.201,5.461c-0.801,1.179-2.03,1.768-3.692,1.768
				c-0.985,0-1.877-0.271-2.675-0.814C355.675,50.931,354.989,50.136,354.416,49.09z M341.248,34.908c0,2.46,0.614,4.46,1.846,5.999
				c1.232,1.537,2.8,2.307,4.705,2.307c1.908,0,3.467-0.764,4.677-2.293c1.21-1.526,1.815-3.531,1.815-6.013
				c0-2.523-0.599-4.559-1.799-6.107c-1.2-1.549-2.763-2.323-4.693-2.323c-1.927,0-3.502,0.78-4.721,2.338
				C341.859,30.375,341.248,32.406,341.248,34.908z"/>
			<path fill="#FFFFFF" d="M377.325,37.861c0.228,1.866,0.995,3.322,2.307,4.368c1.313,1.045,3.046,1.568,5.201,1.568
				c1.865,0,3.941-0.538,6.23-1.615c2.286-1.076,3.695-1.615,4.228-1.615c1.169,0,2.124,0.359,2.863,1.077
				c0.739,0.719,1.107,1.642,1.107,2.769c0,2.133-1.487,4.055-4.462,5.767c-2.972,1.713-6.47,2.569-10.489,2.569
				c-4.902,0-8.993-1.671-12.273-5.014c-3.283-3.343-4.924-7.537-4.924-12.582c0-5.066,1.593-9.291,4.783-12.675
				s7.163-5.076,11.921-5.076c4.596,0,8.441,1.589,11.537,4.768S400,29.237,400,33.831c0,1.498-0.34,2.543-1.017,3.139
				c-0.677,0.595-1.98,0.892-3.907,0.892L377.325,37.861L377.325,37.861z M377.203,31.37h13.105
				c-0.121-1.681-0.801-3.087-2.03-4.215c-1.232-1.127-2.697-1.692-4.4-1.692c-1.681,0-3.128,0.533-4.337,1.6
				C378.332,28.13,377.552,29.565,377.203,31.37z"/>
		</g>
	</g>
</g>
</svg>
