<?xml version="1.0" encoding="utf-8"?>
<!-- Generator: Adobe Illustrator 17.0.0, SVG Export Plug-In . SVG Version: 6.00 Build 0)  -->
<!DOCTYPE svg PUBLIC "-//W3C//DTD SVG 1.1//EN" "http://www.w3.org/Graphics/SVG/1.1/DTD/svg11.dtd">
<svg version="1.1" id="Laag_1" xmlns="http://www.w3.org/2000/svg" xmlns:xlink="http://www.w3.org/1999/xlink" x="0px" y="0px"
	 width="400px" height="70px" viewBox="0 0 400 70" enable-background="new 0 0 400 70" xml:space="preserve">
<g>
	<path fill="#799900" d="M47.666,46.652c0,3.473-2.814,6.287-6.283,6.287H6.287C2.816,52.939,0,50.125,0,46.652V11.556
		c0-3.471,2.816-6.285,6.287-6.285h35.096c3.469,0,6.283,2.814,6.283,6.285V46.652z"/>
	<path fill="#FFFFFF" d="M19.784,47.855c-0.133,0.073-0.264,0.149-0.395,0.226c-1.19-0.12-2.459,0.05-3.67,0.01
		c2.288-5.643,4.818-11.218,7.314-16.803c-2.527-0.212-6.046-0.242-9.126-0.353c-0.948-0.033-2.404-0.329-2.992-0.03
		c-1.624,0.829-1.855,3.441-3.393,4.75c-0.896,0.292-1.603-0.101-2.502,0.212c-0.051-0.086-0.101-0.174-0.153-0.262
		c0.801-2.08,0.928-4.342,1.734-6.42c-0.816-2.147-1.069-4.14-1.858-6.279c0.903-0.049,1.804-0.104,2.651,0.049
		c1.165,1.454,2.273,3.113,3.398,4.695c3.989,0.05,8.084-0.304,12.137-0.501c-2.343-5.52-5.094-11.152-7.495-16.688
		c0.086-0.051,0.176-0.102,0.264-0.153c1.148,0.265,2.437,0.022,3.614,0.198c4.183,5.22,8.293,10.709,12.421,16.131
		c3.425,0.614,7.392-0.771,10.408,1.366c0.203,0.35,0.403,0.7,0.606,1.051c-1.2,4.441-8.037,1.974-11.059,2.681
		C27.789,37.126,23.587,42.436,19.784,47.855"/>
	<g>
		<g>
			<path fill="#FFFFFF" d="M60.245,52.94c-2.816,0-4.747-0.478-5.794-1.44c-1.049-0.959-1.573-2.761-1.573-5.402V12.9
				c0-2.903,0.557-4.9,1.671-5.992c1.113-1.091,3.055-1.637,5.827-1.637h8.938c4.714,0,8.371,1.043,10.967,3.127
				c2.598,2.085,3.896,4.993,3.896,8.725c0,2.336-0.48,4.268-1.44,5.795c-0.961,1.528-2.444,2.728-4.452,3.601
				c3.121,0.765,5.51,2.189,7.169,4.273c1.658,2.085,2.489,4.688,2.489,7.809c0,4.496-1.49,8.011-4.47,10.543
				c-2.978,2.532-7.143,3.796-12.491,3.796H60.245z M63.749,23.835h4.55c1.616,0,2.914-0.426,3.896-1.277s1.473-1.965,1.473-3.339
				c0-1.441-0.496-2.587-1.488-3.438c-0.994-0.851-2.331-1.277-4.012-1.277h-4.419C63.749,14.504,63.749,23.835,63.749,23.835z
				 M63.749,43.611h5.434c2.401,0,4.229-0.46,5.484-1.376c1.254-0.916,1.883-2.246,1.883-3.994c0-1.812-0.617-3.154-1.85-4.027
				s-3.138-1.31-5.713-1.31h-5.238C63.749,32.904,63.749,43.611,63.749,43.611z"/>
			<path fill="#FFFFFF" d="M91.345,38.535V24.457c0-2.597,0.436-4.523,1.309-5.778c0.873-1.255,2.205-1.883,3.995-1.883
				c1.767,0,3.083,0.628,3.944,1.883c0.863,1.255,1.294,3.181,1.294,5.778v11.917c0,2.816,0.425,4.808,1.276,5.975
				c0.851,1.168,2.238,1.752,4.158,1.752c1.921,0,3.307-0.584,4.158-1.752c0.851-1.166,1.278-3.159,1.278-5.975V24.457
				c0-2.597,0.431-4.523,1.293-5.778c0.863-1.255,2.2-1.883,4.012-1.883c1.767,0,3.076,0.622,3.927,1.867
				c0.851,1.244,1.278,3.176,1.278,5.795v14.078c0,5.021-1.364,8.857-4.093,11.508c-2.728,2.652-6.678,3.979-11.852,3.979
				c-5.172,0-9.129-1.327-11.867-3.979C92.716,47.392,91.345,43.556,91.345,38.535z"/>
			<path fill="#FFFFFF" d="M151.195,49.994c-1.092,1.18-2.363,2.074-3.815,2.685c-1.452,0.612-3.04,0.917-4.764,0.917
				c-4.432,0-8.256-1.827-11.475-5.484c-3.221-3.655-4.83-8.104-4.83-13.342s1.588-9.653,4.764-13.243s7.023-5.386,11.542-5.386
				c1.638,0,3.133,0.246,4.485,0.737c1.354,0.491,2.63,1.25,3.831,2.276V9.495c0-2.619,0.431-4.562,1.292-5.828
				c0.863-1.265,2.2-1.899,4.012-1.899c1.745,0,3.05,0.639,3.912,1.916c0.861,1.277,1.292,3.214,1.292,5.811v36.211
				c0,2.618-0.426,4.556-1.278,5.811c-0.851,1.256-2.16,1.882-3.927,1.882c-1.049,0-1.998-0.289-2.849-0.866
				C152.537,51.955,151.805,51.109,151.195,49.994z M137.181,34.901c0,2.618,0.655,4.749,1.965,6.385
				c1.311,1.636,2.98,2.456,5.009,2.456c2.031,0,3.688-0.813,4.978-2.439c1.288-1.626,1.931-3.76,1.931-6.401
				c0-2.685-0.639-4.851-1.915-6.498c-1.278-1.648-2.942-2.472-4.994-2.472c-2.051,0-3.727,0.83-5.024,2.488
				C137.832,30.078,137.181,32.239,137.181,34.901z"/>
			<path fill="#FFFFFF" d="M189.712,48.52c-1.158,1.659-2.532,2.899-4.125,3.717c-1.595,0.82-3.416,1.228-5.469,1.228
				c-4.277,0-7.896-1.755-10.853-5.27c-2.958-3.514-4.437-7.881-4.437-13.098c0-5.259,1.595-9.69,4.78-13.292
				c3.187-3.601,7.072-5.402,11.656-5.402c1.789,0,3.377,0.306,4.764,0.917c1.386,0.611,2.613,1.56,3.684,2.848
				c0.567-1.048,1.271-1.871,2.112-2.471c0.84-0.601,1.696-0.901,2.57-0.901c1.81,0,3.147,0.628,4.01,1.883
				c0.861,1.255,1.293,3.181,1.293,5.778v21.249c0,3.906-0.191,6.957-0.573,9.151c-0.382,2.193-1.02,4.01-1.916,5.451
				c-1.55,2.598-3.682,4.568-6.4,5.91c-2.718,1.342-5.943,2.014-9.675,2.014c-4.563,0-8.283-0.733-11.165-2.193
				c-2.88-1.463-4.321-3.309-4.321-5.535c0-1.331,0.43-2.433,1.293-3.305c0.863-0.873,1.948-1.311,3.257-1.311
				c0.634,0,2.155,0.469,4.568,1.409c2.413,0.937,4.666,1.409,6.761,1.409c2.618,0,4.649-0.776,6.089-2.326s2.16-3.743,2.16-6.58
				c0-0.129-0.01-0.338-0.032-0.62C189.722,48.892,189.712,48.675,189.712,48.52z M175.765,35.097c0,2.641,0.644,4.782,1.931,6.418
				c1.288,1.636,2.947,2.456,4.976,2.456c2.031,0,3.7-0.823,5.009-2.472c1.311-1.648,1.964-3.781,1.964-6.401
				c0-2.553-0.654-4.632-1.964-6.236c-1.309-1.604-2.978-2.407-5.009-2.407c-2.029,0-3.688,0.802-4.976,2.407
				C176.408,30.465,175.765,32.544,175.765,35.097z"/>
			<path fill="#FFFFFF" d="M213.8,38.044c0.241,1.988,1.059,3.538,2.456,4.649c1.397,1.113,3.242,1.669,5.533,1.669
				c1.986,0,4.196-0.571,6.63-1.719c2.434-1.145,3.934-1.717,4.502-1.717c1.244,0,2.26,0.382,3.045,1.147
				c0.786,0.763,1.178,1.746,1.178,2.947c0,2.27-1.581,4.316-4.747,6.137c-3.164,1.823-6.886,2.733-11.163,2.733
				c-5.218,0-9.572-1.779-13.063-5.336c-3.493-3.557-5.24-8.021-5.24-13.39c0-5.391,1.697-9.887,5.092-13.489
				c3.393-3.601,7.622-5.402,12.686-5.402c4.89,0,8.981,1.692,12.278,5.075c3.295,3.383,4.943,7.52,4.943,12.408
				c0,1.594-0.36,2.707-1.08,3.339c-0.72,0.634-2.107,0.949-4.158,0.949C232.692,38.044,213.8,38.044,213.8,38.044z M213.671,31.137
				h13.946c-0.129-1.789-0.851-3.285-2.16-4.486c-1.309-1.2-2.871-1.8-4.682-1.8c-1.789,0-3.328,0.567-4.616,1.702
				S214.041,29.216,213.671,31.137z"/>
			<path fill="#FFFFFF" d="M243.18,26.978h-0.393c-1.855,0-3.312-0.409-4.37-1.228c-1.059-0.819-1.588-1.926-1.588-3.323
				c0-1.44,0.529-2.553,1.588-3.339c1.059-0.786,2.646-1.233,4.764-1.342v-4.649c0-2.597,0.436-4.529,1.309-5.795
				s2.205-1.899,3.994-1.899c1.769,0,3.083,0.633,3.946,1.899s1.294,3.197,1.294,5.795v4.649h0.916c2.096,0,3.726,0.415,4.895,1.245
				c1.168,0.83,1.752,1.975,1.752,3.437c0,1.507-0.563,2.642-1.686,3.406c-1.125,0.764-2.801,1.146-5.026,1.146h-0.851v18.728
				c0,2.618-0.426,4.556-1.277,5.811c-0.851,1.256-2.172,1.882-3.962,1.882c-1.789,0-3.121-0.631-3.994-1.898
				c-0.873-1.264-1.309-3.196-1.309-5.794V26.978H243.18z"/>
			<path fill="#799900" d="M269.683,43.971l-1.638,4.812c-0.524,1.595-1.228,2.811-2.112,3.65c-0.883,0.841-1.915,1.261-3.093,1.261
				c-1.507,0-2.746-0.496-3.717-1.49c-0.971-0.992-1.457-2.242-1.457-3.748c0-0.611,0.043-1.178,0.131-1.702
				c0.086-0.523,0.217-1.004,0.393-1.44l12.408-33.69c0.894-2.422,2.014-4.201,3.357-5.337c1.342-1.134,2.995-1.702,4.96-1.702
				c1.855,0,3.464,0.54,4.83,1.621c1.364,1.08,2.416,2.646,3.159,4.698l12.081,34.246c0.241,0.72,0.42,1.364,0.541,1.931
				c0.119,0.567,0.179,1.07,0.179,1.507c0,1.507-0.503,2.734-1.507,3.684c-1.004,0.949-2.292,1.424-3.863,1.424
				c-1.397,0-2.56-0.436-3.486-1.309c-0.929-0.873-1.666-2.205-2.21-3.994l-1.342-4.42h-17.614V43.971z M272.761,33.952h11.392
				l-5.5-17.68L272.761,33.952z"/>
			<path fill="#799900" d="M300.8,7.891c0-1.68,0.601-3.121,1.802-4.322c1.2-1.2,2.64-1.801,4.32-1.801
				c1.659,0,3.078,0.601,4.256,1.801c1.18,1.2,1.769,2.642,1.769,4.322c0,1.702-0.584,3.143-1.752,4.321
				c-1.168,1.179-2.592,1.769-4.273,1.769c-1.724,0-3.176-0.59-4.354-1.769C301.389,11.034,300.8,9.593,300.8,7.891z
				 M312.129,45.706c0,2.618-0.426,4.556-1.278,5.811c-0.851,1.256-2.16,1.882-3.929,1.882c-1.79,0-3.121-0.631-3.994-1.898
				c-0.873-1.264-1.309-3.196-1.309-5.794v-21.25c0-2.597,0.43-4.523,1.293-5.778c0.863-1.255,2.198-1.883,4.01-1.883
				c1.769,0,3.078,0.628,3.929,1.883c0.851,1.255,1.278,3.181,1.278,5.778L312.129,45.706L312.129,45.706z"/>
			<path fill="#799900" d="M317.497,45.706V24.457c0-2.597,0.431-4.523,1.294-5.778c0.861-1.255,2.187-1.883,3.977-1.883
				c1.07,0,2.019,0.279,2.849,0.835c0.829,0.557,1.56,1.403,2.193,2.537c1.092-1.178,2.248-2.067,3.469-2.668
				c1.223-0.6,2.456-0.9,3.7-0.9c1.462,0,2.723,0.519,3.781,1.555c1.059,1.037,1.588,2.265,1.588,3.683
				c0,2.117-1.943,3.885-5.827,5.304c-1.397,0.503-2.444,0.917-3.143,1.244c-1.332,0.633-2.217,1.337-2.653,2.111
				c-0.436,0.775-0.654,2.178-0.654,4.208v11.001c0,2.598-0.438,4.53-1.311,5.794c-0.873,1.268-2.203,1.898-3.994,1.898
				s-3.116-0.631-3.977-1.898C317.928,50.236,317.497,48.305,317.497,45.706z"/>
			<path fill="#FFFFFF" d="M335.634,47.309c0-1.679,0.601-3.115,1.802-4.304c1.2-1.189,2.64-1.785,4.321-1.785
				c1.659,0,3.078,0.596,4.256,1.785c1.18,1.19,1.769,2.625,1.769,4.304c0,1.702-0.584,3.144-1.752,4.322
				c-1.168,1.18-2.592,1.767-4.272,1.767c-1.724,0-3.176-0.587-4.354-1.767C336.224,50.453,335.634,49.011,335.634,47.309z"/>
			<path fill="#FFFFFF" d="M351.763,45.706V24.457c0-2.597,0.431-4.523,1.294-5.778c0.861-1.255,2.187-1.883,3.977-1.883
				c1.07,0,2.019,0.279,2.849,0.835c0.83,0.557,1.56,1.403,2.194,2.537c1.135-1.244,2.444-2.149,3.929-2.717
				c1.483-0.567,3.284-0.851,5.402-0.851c4.168,0,7.354,1.19,9.559,3.568c2.205,2.379,3.307,5.839,3.307,10.378v15.16
				c0,2.598-0.436,4.53-1.309,5.794c-0.873,1.268-2.205,1.898-3.994,1.898c-1.79,0-3.123-0.631-3.995-1.898
				c-0.873-1.264-1.309-3.196-1.309-5.794v-11.95c0-2.947-0.441-5.047-1.326-6.303c-0.884-1.255-2.341-1.882-4.37-1.882
				c-1.921,0-3.34,0.65-4.258,1.948c-0.916,1.299-1.374,3.334-1.374,6.106v12.082c0,2.598-0.438,4.53-1.311,5.794
				c-0.873,1.268-2.203,1.898-3.994,1.898s-3.116-0.631-3.977-1.898C352.194,50.236,351.763,48.305,351.763,45.706z"/>
			<path fill="#FFFFFF" d="M389.49,9.495c0-2.619,0.436-4.562,1.309-5.828c0.873-1.265,2.203-1.899,3.994-1.899
				c1.746,0,3.05,0.639,3.912,1.916C399.569,4.961,400,6.898,400,9.495v36.211c0,2.618-0.426,4.556-1.278,5.811
				c-0.851,1.256-2.16,1.882-3.929,1.882c-1.79,0-3.121-0.631-3.994-1.898c-0.873-1.264-1.309-3.196-1.309-5.794L389.49,9.495
				L389.49,9.495z"/>
		</g>
	</g>
</g>
</svg>
